2016-11-02 13:02:00.904 python[98154:1038935] pdl = 0
2016-11-02 13:02:21.457 python[98154:1038935] pdl = 0
2016-11-02 13:03:23.716 python[98154:1038935] pdl = 0
2017-01-24 11:30:29.497 python[79395:2162703] modalSession has been exited prematurely - check for a reentrant call to endModalSession:
2017-01-24 14:58:49.181 python[79395:2532264] Communications error: <OS_xpc_error: <error: 0x7fff7aa60b60> { count = 1, contents =
	"XPCErrorDescription" => <string: 0x7fff7aa60fa8> { length = 22, contents = "Connection interrupted" }
}>
Got xpc error message: Connection interrupted
Got xpc error message: Connection interrupted
2017-02-26 10:52:37.601 python[57218:1887472] modalSession has been exited prematurely - check for a reentrant call to endModalSession:
2017-02-26 10:53:17.492 python[57218:1887472] modalSession has been exited prematurely - check for a reentrant call to endModalSession:
2017-02-26 16:21:24.606 python[57218:1913321] Communications error: <OS_xpc_error: <error: 0x7fff76826b60> { count = 1, contents =
	"XPCErrorDescription" => <string: 0x7fff76826fa8> { length = 22, contents = "Connection interrupted" }
}>
2017-02-28 12:23:19.496 python[57218:2181206] plugin com.getdropbox.dropbox.garcon interrupted
2017-02-28 12:23:19.499 python[57218:2181209] plugin com.getdropbox.dropbox.garcon interrupted
2017-02-28 12:23:19.500 python[57218:2180621] plugin com.getdropbox.dropbox.garcon interrupted
2017-02-28 12:23:19.501 python[57218:2181542] plugin com.getdropbox.dropbox.garcon interrupted
2017-02-28 12:23:19.501 python[57218:2181192] plugin com.getdropbox.dropbox.garcon interrupted
2017-02-28 18:53:10.143 python[57218:2235065] plugin com.getdropbox.dropbox.garcon interrupted
2017-02-28 19:24:09.551 python[57218:2250215] Communications error: <OS_xpc_error: <error: 0x7fff76826b60> { count = 1, contents =
	"XPCErrorDescription" => <string: 0x7fff76826fa8> { length = 22, contents = "Connection interrupted" }
}>
2017-02-28 21:11:49.947 python[57218:2288731] Communications error: <OS_xpc_error: <error: 0x7fff76826b60> { count = 1, contents =
	"XPCErrorDescription" => <string: 0x7fff76826fa8> { length = 22, contents = "Connection interrupted" }
}>
2017-03-01 00:59:05.677 python[57218:2338538] Communications error: <OS_xpc_error: <error: 0x7fff76826b60> { count = 1, contents =
	"XPCErrorDescription" => <string: 0x7fff76826fa8> { length = 22, contents = "Connection interrupted" }
}>
2017-03-01 14:51:10.024 python[57218:1887472] modalSession has been exited prematurely - check for a reentrant call to endModalSession:
2017-03-01 14:51:29.323 python[57218:1887472] modalSession has been exited prematurely - check for a reentrant call to endModalSession:
Got xpc error message: Connection interrupted
2017-03-01 16:56:48.733 python[57218:2476936] Communications error: <OS_xpc_error: <error: 0x7fff76826b60> { count = 1, contents =
	"XPCErrorDescription" => <string: 0x7fff76826fa8> { length = 22, contents = "Connection interrupted" }
}>
2017-03-01 17:33:16.115 python[57218:2492761] Communications error: <OS_xpc_error: <error: 0x7fff76826b60> { count = 1, contents =
	"XPCErrorDescription" => <string: 0x7fff76826fa8> { length = 22, contents = "Connection interrupted" }
}>
2017-03-01 17:33:40.206 python[57218:2492943] Communications error: <OS_xpc_error: <error: 0x7fff76826b60> { count = 1, contents =
	"XPCErrorDescription" => <string: 0x7fff76826fa8> { length = 22, contents = "Connection interrupted" }
}>
2017-03-02 09:30:47.012 python[57218:2825042] Communications error: <OS_xpc_error: <error: 0x7fff76826b60> { count = 1, contents =
	"XPCErrorDescription" => <string: 0x7fff76826fa8> { length = 22, contents = "Connection interrupted" }
}>
2017-03-02 10:47:59.921 python[57218:2886678] Communications error: <OS_xpc_error: <error: 0x7fff76826b60> { count = 1, contents =
	"XPCErrorDescription" => <string: 0x7fff76826fa8> { length = 22, contents = "Connection interrupted" }
}>
2017-03-02 11:31:44.440 python[57218:2917123] Communications error: <OS_xpc_error: <error: 0x7fff76826b60> { count = 1, contents =
	"XPCErrorDescription" => <string: 0x7fff76826fa8> { length = 22, contents = "Connection interrupted" }
}>
2017-03-02 11:47:32.427 python[57218:2929285] Communications error: <OS_xpc_error: <error: 0x7fff76826b60> { count = 1, contents =
	"XPCErrorDescription" => <string: 0x7fff76826fa8> { length = 22, contents = "Connection interrupted" }
}>
2017-03-02 21:52:41.302 python[57218:3121135] Communications error: <OS_xpc_error: <error: 0x7fff76826b60> { count = 1, contents =
	"XPCErrorDescription" => <string: 0x7fff76826fa8> { length = 22, contents = "Connection interrupted" }
}>
2017-03-02 22:28:15.984 python[57218:3150859] Communications error: <OS_xpc_error: <error: 0x7fff76826b60> { count = 1, contents =
	"XPCErrorDescription" => <string: 0x7fff76826fa8> { length = 22, contents = "Connection interrupted" }
}>
2017-03-03 01:38:11.988 python[57218:3162172] Communications error: <OS_xpc_error: <error: 0x7fff76826b60> { count = 1, contents =
	"XPCErrorDescription" => <string: 0x7fff76826fa8> { length = 22, contents = "Connection interrupted" }
}>
2017-03-05 13:32:48.173 python[57218:3231396] Communications error: <OS_xpc_error: <error: 0x7fff76826b60> { count = 1, contents =
	"XPCErrorDescription" => <string: 0x7fff76826fa8> { length = 22, contents = "Connection interrupted" }
}>
2017-03-08 18:19:56.073 python[57218:3774676] Communications error: <OS_xpc_error: <error: 0x7fff76826b60> { count = 1, contents =
	"XPCErrorDescription" => <string: 0x7fff76826fa8> { length = 22, contents = "Connection interrupted" }
}>
2017-03-10 15:19:10.113 python[57218:4382033] Communications error: <OS_xpc_error: <error: 0x7fff76826b60> { count = 1, contents =
	"XPCErrorDescription" => <string: 0x7fff76826fa8> { length = 22, contents = "Connection interrupted" }
}>
2017-03-12 14:09:22.285 python[57218:7303462] Communications error: <OS_xpc_error: <error: 0x7fff76826b60> { count = 1, contents =
	"XPCErrorDescription" => <string: 0x7fff76826fa8> { length = 22, contents = "Connection interrupted" }
}>
2017-03-12 21:39:31.557 python[57218:10309333] Communications error: <OS_xpc_error: <error: 0x7fff76826b60> { count = 1, contents =
	"XPCErrorDescription" => <string: 0x7fff76826fa8> { length = 22, contents = "Connection interrupted" }
}>
